{
  "authentication_and_authorization": {
    "name": "Authentication and Authorization",
    "section": "dev",
    "stage": "manage",
    "categories": [
      "authentication_and_authorization",
      "permissions",
      "user_management",
      "credential_management",
      "system_access"
    ],
    "label": "group::authentication and authorization"
  },
  "workspace": {
    "name": "Workspace",
    "section": "dev",
    "stage": "manage",
    "categories": [
      "subgroups",
      "users",
      "projects"
    ],
    "label": "group::workspace"
  },
  "import": {
    "name": "Import",
    "section": "dev",
    "stage": "manage",
    "categories": [
      "importers",
      "internationalization"
    ],
    "label": "group::import"
  },
  "integrations": {
    "name": "Integrations",
    "section": "dev",
    "stage": "manage",
    "categories": [
      "integrations"
    ],
    "label": "group::integrations"
  },
  "foundations": {
    "name": "Foundations",
    "section": "dev",
    "stage": "manage",
    "categories": [
      "design_system",
      "navigation",
      "gitlab_docs"
    ],
    "label": "group::foundations"
  },
  "project_management": {
    "name": "Project Management",
    "section": "dev",
    "stage": "plan",
    "categories": [
      "team_planning",
      "planning_analytics"
    ],
    "label": "group::project management"
  },
  "product_planning": {
    "name": "Product Planning",
    "section": "dev",
    "stage": "plan",
    "categories": [
      "portfolio_management",
      "design_management"
    ],
    "label": "group::product planning"
  },
  "certify": {
    "name": "Certify",
    "section": "dev",
    "stage": "plan",
    "categories": [
      "requirements_management",
      "quality_management",
      "service_desk"
    ],
    "label": "group::certify"
  },
  "optimize": {
    "name": "Optimize",
    "section": "dev",
    "stage": "plan",
    "categories": [
      "devops_reports",
      "value_stream_management"
    ],
    "label": "group::optimize"
  },
  "source_code": {
    "name": "Source Code",
    "section": "dev",
    "stage": "create",
    "categories": [
      "source_code_management",
      "git_lfs"
    ],
    "label": "group::source code"
  },
  "code_review": {
    "name": "Code Review",
    "section": "dev",
    "stage": "create",
    "categories": [
      "code_review",
      "editor_extension"
    ],
    "label": "group::code review"
  },
  "editor": {
    "name": "Editor",
    "section": "dev",
    "stage": "create",
    "categories": [
      "web_ide",
      "snippets",
      "wiki",
      "pages",
      "remote_development"
    ],
    "label": "group::editor"
  },
  "pipeline_execution": {
    "name": "Pipeline Execution",
    "section": "ops",
    "stage": "verify",
    "categories": [
      "continuous_integration",
      "merge_trains",
      "continuous_integration_scaling"
    ],
    "label": "group::pipeline execution"
  },
  "pipeline_authoring": {
    "name": "Pipeline Authoring",
    "section": "ops",
    "stage": "verify",
    "categories": [
      "pipeline_authoring",
      "jenkins_importer",
      "secrets_management"
    ],
    "label": "group::pipeline authoring"
  },
  "runner": {
    "name": "Runner",
    "section": "ops",
    "stage": "verify",
    "categories": [
      "runner",
      "runner_saas",
      "runner_fleet"
    ],
    "label": "group::runner"
  },
  "pipeline_insights": {
    "name": "Pipeline Insights",
    "section": "ops",
    "stage": "verify",
    "categories": [
      "code_testing",
      "performance_testing",
      "build_artifacts",
      "review_apps"
    ],
    "label": "group::pipeline insights"
  },
  "package_registry": {
    "name": "Package Registry",
    "section": "ops",
    "stage": "package",
    "categories": [
      "package_registry",
      "helm_chart_registry"
    ],
    "label": "group::package registry"
  },
  "container_registry": {
    "name": "Container Registry",
    "section": "ops",
    "stage": "package",
    "categories": [
      "container_registry",
      "dependency_proxy",
      "dependency_firewall"
    ],
    "label": "group::container registry"
  },
  "static_analysis": {
    "name": "Static Analysis",
    "section": "sec",
    "stage": "secure",
    "categories": [
      "static_application_security_testing",
      "secret_detection",
      "code_quality"
    ],
    "label": "group::static analysis"
  },
  "dynamic_analysis": {
    "name": "Dynamic Analysis",
    "section": "sec",
    "stage": "secure",
    "categories": [
      "dynamic_application_security_testing",
      "fuzz_testing",
      "api_security",
      "interactive_application_security_testing",
      "attack_emulation"
    ],
    "label": "group::dynamic analysis"
  },
  "composition_analysis": {
    "name": "Composition Analysis",
    "section": "sec",
    "stage": "secure",
    "categories": [
      "dependency_scanning",
      "container_scanning",
      "license_compliance"
    ],
    "label": "group::composition analysis"
  },
  "vulnerability_research": {
    "name": "Vulnerability Research",
    "section": "sec",
    "stage": "secure",
    "categories": [
      "advisory_database",
      "security_benchmarking"
    ],
    "label": "group::vulnerability research"
  },
  "anti-abuse": {
    "name": "Anti-Abuse",
    "section": "data-science",
    "stage": "anti-abuse",
    "categories": [
      "instance_resiliency",
      "insider_threat"
    ],
    "label": "group::anti-abuse"
  },
  "release": {
    "name": "Release",
    "section": "ops",
    "stage": "release",
    "categories": [
      "continuous_delivery",
      "advanced_deployments",
      "feature_flags",
      "release_orchestration",
      "release_evidence",
      "environment_management"
    ],
    "label": "group::release"
  },
  "configure": {
    "name": "Configure",
    "section": "ops",
    "stage": "configure",
    "categories": [
      "auto_devops",
      "infrastructure_as_code",
      "kubernetes_management",
      "cluster_cost_management",
      "chatops",
      "deployment_management"
    ],
    "label": "group::configure"
  },
  "respond": {
    "name": "Respond",
    "section": "ops",
    "stage": "monitor",
    "categories": [
      "incident_management",
      "on_call_schedule_management",
      "runbooks",
      "continuous_verification"
    ],
    "label": "group::respond"
  },
  "observability": {
    "name": "Observability",
    "section": "ops",
    "stage": "monitor",
    "categories": [
      "metrics",
      "tracing",
      "logging",
      "error_tracking"
    ],
    "label": "group::observability"
  },
  "security_policies": {
    "name": "Security Policies",
    "section": "sec",
    "stage": "govern",
    "categories": [
      "security_policy_management"
    ],
    "label": "group::security policies"
  },
  "threat_insights": {
    "name": "Threat Insights",
    "section": "sec",
    "stage": "govern",
    "categories": [
      "vulnerability_management",
      "dependency_management"
    ],
    "label": "group::threat insights"
  },
  "compliance": {
    "name": "Compliance",
    "section": "sec",
    "stage": "govern",
    "categories": [
      "audit_events",
      "compliance_management"
    ],
    "label": "group::compliance"
  },
  "product_intelligence": {
    "name": "Product Intelligence",
    "section": "analytics",
    "stage": "analytics",
    "categories": [
      "service_ping",
      "privacy_control_center",
      "application_instrumentation"
    ],
    "label": "group::product intelligence"
  },
  "product_analytics": {
    "name": "Product Analytics",
    "section": "analytics",
    "stage": "analytics",
    "categories": [
      "product_analytics"
    ],
    "label": "group::product analytics"
  },
  "purchase": {
    "name": "Purchase",
    "section": "fulfillment",
    "stage": "fulfillment",
    "categories": [
      "purchase"
    ],
    "label": "group::purchase"
  },
  "provision": {
    "name": "Provision",
    "section": "fulfillment",
    "stage": "fulfillment",
    "categories": [
      "sm_provisioning",
      "saas_provisioning"
    ],
    "label": "group::provision"
  },
  "utilization": {
    "name": "Utilization",
    "section": "fulfillment",
    "stage": "fulfillment",
    "categories": [
      "subscription_usage_reports",
      "subscription_cost_management"
    ],
    "label": "group::utilization"
  },
  "fulfillment_platform": {
    "name": "Fulfillment Platform",
    "section": "fulfillment",
    "stage": "fulfillment",
    "categories": [
      "fulfillment_infrastructure",
      "fulfillment_developer_productivity",
      "customersdot_application"
    ],
    "label": "group::fulfillment platform"
  },
  "billing_and_subscription_management": {
    "name": "Billing and Subscription Management",
    "section": "fulfillment",
    "stage": "fulfillment",
    "categories": [
      "billing_and_payments",
      "subscription_management"
    ],
    "label": "group::billing and subscription management"
  },
  "commerce_integrations": {
    "name": "Commerce Integrations",
    "section": "fulfillment",
    "stage": "fulfillment",
    "categories": [
      "commerce_integrations"
    ],
    "label": "group::commerce integrations"
  },
  "fulfillment_admin_tooling": {
    "name": "Fulfillment Admin Tooling",
    "section": "fulfillment",
    "stage": "fulfillment",
    "categories": [
      "fulfillment_admin_tooling"
    ],
    "label": "group::fulfillment admin tooling"
  },
  "acquisition": {
    "name": "Acquisition",
    "section": "growth",
    "stage": "growth",
    "categories": [
      "experimentation_conversion",
      "experimentation_expansion",
      "onboarding"
    ],
    "label": "group::acquisition"
  },
  "activation": {
    "name": "Activation",
    "section": "growth",
    "stage": "growth",
    "categories": [
      "experimentation_adoption",
      "experimentation_activation"
    ],
    "label": "group::activation"
  },
  "distribution_build": {
    "name": "Distribution:Build",
    "section": "enablement",
    "stage": "systems",
    "categories": [
      "build"
    ],
    "label": "group::distribution"
  },
  "distribution_deploy": {
    "name": "Distribution:Deploy",
    "section": "enablement",
    "stage": "systems",
    "categories": [
      "omnibus_package",
      "cloud_native_installation"
    ],
    "label": "group::distribution"
  },
  "gitaly_cluster": {
    "name": "Gitaly:Cluster",
    "section": "enablement",
    "stage": "systems",
    "categories": [
      "gitaly"
    ],
    "label": "group::gitaly"
  },
  "gitaly_git": {
    "name": "Gitaly:Git",
    "section": "enablement",
    "stage": "systems",
    "categories": [
      "gitaly"
    ],
    "label": "group::gitaly"
  },
  "geo": {
    "name": "Geo",
    "section": "enablement",
    "stage": "systems",
    "categories": [
      "geo_replication",
      "disaster_recovery",
      "backup_restore"
    ],
    "label": "group::geo"
  },
  "application_performance": {
    "name": "Application Performance",
    "section": "enablement",
    "stage": "data_stores",
    "categories": [
      "application_performance",
      "redis"
    ],
    "label": "group::application performance"
  },
  "global_search": {
    "name": "Global Search",
    "section": "enablement",
    "stage": "data_stores",
    "categories": [
      "global_search"
    ],
    "label": "group::global search"
  },
  "database": {
    "name": "Database",
    "section": "enablement",
    "stage": "data_stores",
    "categories": [
      "database"
    ],
    "label": "group::database"
  },
  "pods": {
    "name": "Pods",
    "section": "enablement",
    "stage": "data_stores",
    "categories": [
      "pods"
    ],
    "label": "group::pods"
  },
  "delivery": {
    "name": "Delivery",
    "section": "platforms",
    "stage": "platforms",
    "categories": [
      "delivery"
    ],
    "label": "group::delivery"
  },
  "scalability": {
    "name": "Scalability",
    "section": "platforms",
    "stage": "platforms",
    "categories": [
      "scalability",
      "error_budgets",
      "infrastructure_cost_data"
    ],
    "label": "group::scalability"
  },
  "dedicated": {
    "name": "GitLab Dedicated",
    "section": "platforms",
    "stage": "platforms",
    "categories": [
      "dedicated"
    ],
    "label": "group::dedicated"
  },
  "pubsec_services": {
    "name": "US Public Sector Services",
    "section": "platforms",
    "stage": "platforms",
    "categories": [
      "pubsec_services"
    ],
    "label": "group::pubsec services"
  },
  "applied_ml": {
    "name": "Applied Machine Learning",
    "section": "data-science",
    "stage": "modelops",
    "categories": [
      "workflow_automation",
      "intel_code_security"
    ],
    "label": "group::applied ml"
  },
  "mlops": {
    "name": "MLOps",
    "section": "data-science",
    "stage": "modelops",
    "categories": [
      "mlops"
    ],
    "label": "group::mlops"
  },
  "dataops": {
    "name": "DataOps",
    "section": "data-science",
    "stage": "modelops",
    "categories": [
      "dataops"
    ],
    "label": "group::dataops"
  },
  "moble_devops": {
    "name": "Mobile DevOps",
    "section": "seg",
    "stage": "mobile",
    "categories": [
      "mobile_signing_deployment"
    ],
    "label": "group::moble devops"
  },
  "5-min-app": {
    "name": "Five Minute Production App",
    "section": "seg",
    "stage": "deploy",
    "categories": [
      "five_minute_production_app"
    ],
    "label": "group::5-min-app"
  }
}
